23
"<1n,2n,3n,4n,5n,6n,7n,8n,9n,10n,11n,12n,13n,14n,15n,16n,17n,18n,19n,20n,21n,22n,23n>"
1 1 1 0 0.5 0 1 1 0.5 0 0 1 0.5 1 1 0.5 1 0 0 0 0 0.5 0.5
1 1 0 1 0 1 0.5 0.5 0.5 1 1 0.5 0.5 1 1 1 0 1 0.5 0 0.5 1 1
0 0 0.5 1 0 1 1 1 0 0 0 0 1 0 0 0 0 0 0 0 0.5 0.5 0.5
1 0 0 1 0.5 1 0 1 0 0 1 0.5 0 1 1 1 0.5 0 0.5 0.5 1 0.5 0.5
1 1 1 0.5 1 0 0 0 0 1 0 1 1 0 1 0 0 0.5 1 1 1 1 0
0.5 0.5 1 0.5 0 0.5 0.5 1 1 0.5 0.5 1 0.5 1 1 1 1 1 1 0.5 0.5 0.5 0
1 1 1 0.5 0 0 1 1 0.5 1 0 0.5 0.5 0 0 1 1 0 0.5 1 0 1 0.5
0.5 0 0 0 0 0 0.5 1 1 0 0 0 0 0 0 0 0.5 1 0.5 0.5 0 0.5 1
0.5 0.5 0.5 0.5 0 1 0.5 0.5 1 0.5 0.5 0.5 0 1 0 0.5 0.5 0.5 0.5 0 0.5 0 0.5
1 1 0 0.5 0 1 0.5 0 1 0.5 0.5 1 0.5 0 1 1 0.5 0.5 0 1 0.5 1 1
0 0 0.5 0 1 0 0 0.5 0.5 0.5 0.5 0.5 0 0.5 0.5 1 0 0.5 0.5 0.5 1 1 0.5
0 1 0 0 1 1 0.5 1 1 0 0.5 0 1 1 0.5 0.5 1 0.5 0.5 0 0.5 0.5 0
0 0.5 0.5 1 0.5 1 1 1 1 0 0.5 0 0 0.5 1 0.5 0.5 0.5 1 0.5 1 1 0.5
0 0.5 0.5 1 1 0 0.5 0 0 0.5 0.5 1 1 1 0 0.5 0.5 1 0 0 1 0.5 0.5
0.5 0 0.5 0.5 1 0.5 0.5 1 0 1 1 1 1 0.5 0.5 0.5 1 1 1 0.5 1 0.5 0
1 1 0.5 1 0 0 0 1 1 1 0 1 0.5 0 1 1 0 0 0 0 0.5 0 0
1 1 0.5 0.5 0 0 0 0 0 1 1 0.5 0.5 0 1 1 0.5 0 1 0.5 1 1 0
0.5 1 0 0 0 1 0.5 1 0.5 0 1 0 1 0.5 0.5 1 0.5 0.5 1 0.5 0.5 1 0
1 0 1 0.5 0 0.5 0.5 0.5 0 0.5 0 0 0 0.5 0.5 0 0 1 0.5 0.5 0.5 0.5 0
0.5 0 1 0.5 0 1 0 1 1 0 0 0.5 0.5 1 0.5 0.5 1 0 0 0.5 0 1 1
0.5 0.5 0.5 1 0.5 0 1 1 1 0.5 1 0 1 1 1 0 0.5 1 0 0.5 0.5 0 0.5
0 1 0 0.5 1 0.5 0 0 0 0.5 0.5 0 0.5 0.5 1 0 1 0.5 0 1 0 0 0.5
0 0 0 1 1 0.5 1 0.5 1 0.5 1 1 0 0 1 1 0 0.5 1 0.5 0 0.5 0
0 0.5 0.5 0 0.5 1 0.5 0.5 1 0.5 1 0.5 0 0.5 1 0 0 1 1 0 1 1 0
0.5 1 0 0.5 0.5 1 0 0.5 0.5 1 0 0 0.5 1 1 0.5 0 0.5 0.5 0 0 1 0
0.5 0.5 1 1 0.5 0.5 0 1 0.5 1 0.5 1 0.5 0.5 0 0.5 0.5 1 0 0 0 0 0.5
1 1 0 1 1 0.5 1 0.5 1 1 0.5 0 0.5 0 0 0 0 0 0.5 0 0 0 1
0 0 1 0 0 0.5 0 0 0 0 0.5 0 0 1 1 0.5 1 0.5 0.5 0 1 1 0.5
0.5 0 0 0.5 0.5 0 0.5 0 1 0.5 0 0 0 0.5 0 0 1 0.5 0.5 0 0 0 0
0 0.5 0 1 0.5 0.5 0 0 0.5 0.5 0.5 0.5 0.5 0 0.5 0.5 1 1 1 0.5 0 0.5 1
0.5 1 0 0 1 0 0.5 0.5 1 1 1 0.5 0.5 0.5 1 1 1 0 0 1 1 0.5 0
1 0.5 1 0 0 1 0 0 0 1 0 0.5 0.5 0.5 0 1 0 1 0 1 0 0.5 1
0.5 1 0 0.5 0 1 0 0.5 0 1 0.5 0.5 1 0 1 1 1 0.5 0.5 0 0 0.5 0
0 0.5 0 0 0 0 0 1 0.5 0.5 0 0 1 0.5 1 0.5 1 0.5 0.5 0 0.5 0.5 0.5
0 0.5 0.5 0 1 0 0 1 0.5 0 1 0.5 1 0 1 1 0.5 0.5 1 0 0 0 1
0 1 0 1 0 0 0.5 0.5 1 1 1 0.5 0.5 0.5 1 0 1 1 0 1 0.5 0.5 1
0 0 1 0.5 0 0.5 1 0 1 1 0.5 0.5 0.5 1 0 1 0.5 0 0.5 1 1 0 1
1 0.5 0 0.5 0 0.5 0 0.5 0 0 1 1 0.5 0 1 0 0.5 0 0.5 0 0 1 1
0 0.5 1 0 1 0 0 0 0.5 0.5 0 0 1 1 1 1 0 0 0 0.5 0 0.5 1
0 0 0.5 0 1 0 1 1 0.5 0 0 1 0.5 1 1 0 1 0 0.5 0.5 0.5 0 1
1 0.5 1 0.5 0.5 0 0 0.5 1 1 0.5 0.5 1 0 0.5 1 1 0.5 1 1 0 1 0.5
1 1 0 0.5 0 1 0.5 1 1 0.5 0 0.5 0.5 0 0.5 0.5 0 0.5 0.5 0 1 1 0.5
0 0 0.5 1 0 0 1 0 0 0.5 0 0 0 1 0.5 0 1 1 0 0 0.5 0 1
0 0.5 0 0.5 1 0.5 0.5 0.5 1 0 1 0.5 0 0.5 0.5 1 0.5 0 1 0.5 0 0 1
1 0 1 0 0.5 0.5 0 1 1 1 0 1 0 1 0 1 0.5 1 0 0 1 0 1
0.5 0 0 0.5 0 0 0 0 1 1 1 1 0 1 0.5 1 1 1 0.5 1 1 0.5 0.5
